module gitlab.com/slbmax/flow-rosetta

go 1.20

require (
	github.com/coinbase/rosetta-sdk-go v0.8.2
	github.com/ethereum/go-ethereum v1.13.8
	github.com/neilotoole/errgroup v0.1.6
	github.com/stretchr/testify v1.8.4
	golang.org/x/crypto v0.17.0
	golang.org/x/sync v0.5.0
)

require (
	github.com/DataDog/zstd v1.5.2 // indirect
	github.com/Microsoft/go-winio v0.6.1 // indirect
	github.com/StackExchange/wmi v1.2.1 // indirect
	github.com/VictoriaMetrics/fastcache v1.12.1 // indirect
	github.com/beorn7/perks v1.0.1 // indirect
	github.com/bits-and-blooms/bitset v1.10.0 // indirect
	github.com/btcsuite/btcd/btcec/v2 v2.2.0 // indirect
	github.com/cenkalti/backoff v2.2.1+incompatible // indirect
	github.com/cespare/xxhash/v2 v2.2.0 // indirect
	github.com/cockroachdb/errors v1.8.1 // indirect
	github.com/cockroachdb/logtags v0.0.0-20190617123548-eb05cc24525f // indirect
	github.com/cockroachdb/pebble v0.0.0-20230928194634-aa077af62593 // indirect
	github.com/cockroachdb/redact v1.0.8 // indirect
	github.com/cockroachdb/sentry-go v0.6.1-cockroachdb.2 // indirect
	github.com/cockroachdb/tokenbucket v0.0.0-20230807174530-cc333fc44b06 // indirect
	github.com/consensys/bavard v0.1.13 // indirect
	github.com/consensys/gnark-crypto v0.12.1 // indirect
	github.com/crate-crypto/go-ipa v0.0.0-20231025140028-3c0104f4b233 // indirect
	github.com/crate-crypto/go-kzg-4844 v0.7.0 // indirect
	github.com/davecgh/go-spew v1.1.1 // indirect
	github.com/deckarep/golang-set/v2 v2.1.0 // indirect
	github.com/decred/dcrd/dcrec/secp256k1/v4 v4.0.1 // indirect
	github.com/ethereum/c-kzg-4844 v0.4.0 // indirect
	github.com/fatih/color v1.13.0 // indirect
	github.com/fsnotify/fsnotify v1.6.0 // indirect
	github.com/gballet/go-libpcsclite v0.0.0-20190607065134-2772fd86a8ff // indirect
	github.com/gballet/go-verkle v0.1.1-0.20231031103413-a67434b50f46 // indirect
	github.com/go-ole/go-ole v1.3.0 // indirect
	github.com/gofrs/flock v0.8.1 // indirect
	github.com/gogo/protobuf v1.3.2 // indirect
	github.com/golang/protobuf v1.5.3 // indirect
	github.com/golang/snappy v0.0.5-0.20220116011046-fa5810519dcb // indirect
	github.com/google/uuid v1.3.0 // indirect
	github.com/gorilla/mux v1.8.0 // indirect
	github.com/gorilla/websocket v1.4.2 // indirect
	github.com/holiman/bloomfilter/v2 v2.0.3 // indirect
	github.com/holiman/uint256 v1.2.4 // indirect
	github.com/huin/goupnp v1.3.0 // indirect
	github.com/jackpal/go-nat-pmp v1.0.2 // indirect
	github.com/klauspost/compress v1.15.15 // indirect
	github.com/kr/pretty v0.3.1 // indirect
	github.com/kr/text v0.2.0 // indirect
	github.com/mattn/go-colorable v0.1.13 // indirect
	github.com/mattn/go-isatty v0.0.17 // indirect
	github.com/mattn/go-runewidth v0.0.13 // indirect
	github.com/matttproud/golang_protobuf_extensions v1.0.2-0.20181231171920-c182affec369 // indirect
	github.com/mitchellh/mapstructure v1.4.3 // indirect
	github.com/mmcloughlin/addchain v0.4.0 // indirect
	github.com/olekukonko/tablewriter v0.0.5 // indirect
	github.com/pkg/errors v0.9.1 // indirect
	github.com/pmezard/go-difflib v1.0.0 // indirect
	github.com/prometheus/client_golang v1.12.0 // indirect
	github.com/prometheus/client_model v0.2.1-0.20210607210712-147c58e9608a // indirect
	github.com/prometheus/common v0.32.1 // indirect
	github.com/prometheus/procfs v0.7.3 // indirect
	github.com/rivo/uniseg v0.2.0 // indirect
	github.com/rogpeppe/go-internal v1.9.0 // indirect
	github.com/segmentio/fasthash v1.0.3 // indirect
	github.com/shirou/gopsutil v3.21.4-0.20210419000835-c7a38de76ee5+incompatible // indirect
	github.com/status-im/keycard-go v0.2.0 // indirect
	github.com/stretchr/objx v0.5.0 // indirect
	github.com/supranational/blst v0.3.11 // indirect
	github.com/syndtr/goleveldb v1.0.1-0.20210819022825-2ae1ddf74ef7 // indirect
	github.com/tklauser/go-sysconf v0.3.12 // indirect
	github.com/tklauser/numcpus v0.6.1 // indirect
	github.com/tyler-smith/go-bip39 v1.1.0 // indirect
	golang.org/x/exp v0.0.0-20231110203233-9a3e6036ecaa // indirect
	golang.org/x/mod v0.14.0 // indirect
	golang.org/x/sys v0.16.0 // indirect
	golang.org/x/text v0.14.0 // indirect
	golang.org/x/tools v0.15.0 // indirect
	google.golang.org/protobuf v1.27.1 // indirect
	gopkg.in/yaml.v3 v3.0.1 // indirect
	rsc.io/tmplfunc v0.0.3 // indirect
)
